{
    "checks": {
        "metric-mpstat-cpu": {
            "type": "metric",
            "handlers": ["mongodb"],
            "command": "/etc/sensu-monitoring/plugins/metric_check-mpstat-cpu.rb --scheme :::name:::",
            "interval": 10,
            "subscribers": ["linux-6"]
        }
    }
}
